<svg width="1422" height="564" viewBox="0 0 1422 564" fill="none" xmlns="http://www.w3.org/2000/svg">
<path d="M687 1H1363.62C1420.78 1 1422.62 63.997 1420.78 95.4955C1420.78 157.493 1382.67 156.826 1363.62 157.493H238.864C47.1025 157.493 0.39134 285.487 1.00596 349.484C1.00596 565.473 128.814 562.999 238.864 562.999" stroke="#E7C087" stroke-dasharray="5 5"/>
</svg>
